<?xml version="1.0" encoding="utf-8"?>
<!-- Generator: Adobe Illustrator 19.0.0, SVG Export Plug-In . SVG Version: 6.00 Build 0)  -->
<!DOCTYPE svg PUBLIC "-//W3C//DTD SVG 1.1//EN" "http://www.w3.org/Graphics/SVG/1.1/DTD/svg11.dtd">
<svg version="1.1" id="Layer_1" xmlns="http://www.w3.org/2000/svg" xmlns:xlink="http://www.w3.org/1999/xlink" x="0px" y="0px"
	 width="502.5px" height="58.7px" viewBox="0 0 502.5 58.7" enable-background="new 0 0 502.5 58.7" xml:space="preserve">
<path fill="#191842" d="M66.9,1.6H83l10.2,14.2l10.2-14.2h16.2l-18.2,25.6l21.3,29.9h-16.1L93.3,38.6l-13,18.6H64.1l21.1-30
	L66.9,1.6z"/>
<path fill="#191842" d="M154.4,1.6h25.2c3.8,0,7.1,0.7,9.7,2.1c2.6,1.4,4.7,3.5,6,6.2c1.4,2.7,2.1,6,2.1,9.8
	c0,6.1-1.6,10.7-4.7,13.9c-3.1,3.2-7.6,4.8-13.5,4.8h-10.1v18.7h-14.8V1.6z M169.2,14v11.6h5.9c2,0,3.7-0.5,4.9-1.5
	c1.2-1,1.9-2.4,1.9-4c0-1.7-0.5-3.2-1.6-4.4c-1.1-1.2-2.4-1.7-3.9-1.7H169.2z"/>
<path fill="#191842" d="M232,1.6h14.8v40.7h19.3v14.8H232V1.6z"/>
<path fill="#191842" d="M326.7,0c6,0,11.3,1.2,15.9,3.7c4.6,2.5,8.2,5.9,10.7,10.3c2.5,4.4,3.8,9.4,3.8,14.9c0,4.4-0.7,8.4-2.2,12.1
	c-1.5,3.7-3.6,6.8-6.4,9.5c-2.8,2.6-6.1,4.7-10,6.1c-3.9,1.4-8.2,2.1-12.9,2.1c-5.8,0-11-1.3-15.6-3.8c-4.6-2.5-8.2-6-10.8-10.4
	c-2.6-4.5-3.9-9.5-3.9-15.2c0-4.2,0.7-8.1,2.2-11.8c1.5-3.6,3.6-6.7,6.4-9.3c2.8-2.6,6-4.6,9.8-6.1C317.4,0.7,321.6,0,326,0H326.7z
	 M326,14c-2.7,0-5.2,0.7-7.5,2c-2.3,1.3-4.2,3.1-5.5,5.4c-1.4,2.3-2.1,4.8-2.1,7.5c0,2.9,0.7,5.5,2,7.9c1.3,2.4,3.2,4.3,5.6,5.7
	s4.9,2.1,7.7,2.1c2.1,0,4.1-0.4,5.9-1.1c1.8-0.8,3.4-1.9,4.9-3.3c1.4-1.5,2.5-3.1,3.3-4.9c0.8-1.8,1.1-3.8,1.1-5.9
	c0-2.1-0.4-4.1-1.2-6c-0.8-1.9-1.9-3.5-3.3-4.9c-1.4-1.4-3.1-2.5-4.9-3.3C330.1,14.4,328.1,14,326,14z"/>
<path fill="#191842" d="M391.7,1.6h22.4c2.9,0,5.6,0.4,7.9,1.2c2.4,0.8,4.4,1.9,6.1,3.4s2.9,3.2,3.8,5.3c0.9,2.1,1.4,4.4,1.4,7.1
	c0,2.4-0.5,4.7-1.5,6.9c-1,2.2-2.4,4-4.2,5.6c-1.8,1.6-3.9,2.7-6.4,3.5l15.8,22.7h-15.9l-13.3-18.8h-1.3v18.8h-14.8V1.6z
	 M406.6,13.3v13.4h3.6c2.4,0,4.3-0.6,5.6-1.8c1.4-1.2,2-2.9,2-5.1c0-1.9-0.7-3.5-2-4.7c-1.4-1.2-3.2-1.8-5.5-1.8H406.6z"/>
<rect y="1.6" fill="#191842" width="33.5" height="12.6"/>
<rect y="23.1" fill="#191842" width="33.5" height="12.6"/>
<rect y="44.6" fill="#191842" width="33.5" height="12.6"/>
<rect x="469" y="1.6" fill="#191842" width="33.5" height="12.6"/>
<rect x="469" y="23.1" fill="#191842" width="33.5" height="12.6"/>
<rect x="469" y="44.6" fill="#191842" width="33.5" height="12.6"/>
<g id="XMLID_14_">
</g>
<g id="XMLID_15_">
</g>
<g id="XMLID_16_">
</g>
<g id="XMLID_17_">
</g>
<g id="XMLID_18_">
</g>
<g id="XMLID_19_">
</g>
</svg>
