<?xml version="1.0" encoding="utf-8"?>
<!-- Generator: Adobe Illustrator 19.0.0, SVG Export Plug-In . SVG Version: 6.00 Build 0)  -->
<!DOCTYPE svg PUBLIC "-//W3C//DTD SVG 1.1//EN" "http://www.w3.org/Graphics/SVG/1.1/DTD/svg11.dtd">
<svg version="1.1" id="Layer_1" xmlns="http://www.w3.org/2000/svg" xmlns:xlink="http://www.w3.org/1999/xlink" x="0px" y="0px"
	 width="971.8px" height="480.6px" viewBox="0 0 971.8 480.6" enable-background="new 0 0 971.8 480.6" xml:space="preserve">
<g id="XMLID_14_">
	<linearGradient id="XMLID_22_" gradientUnits="userSpaceOnUse" x1="84.9609" y1="1209.1953" x2="84.9609" y2="-226.8078">
		<stop  offset="0" style="stop-color:#84F44F"/>
		<stop  offset="1" style="stop-color:#D0F435"/>
	</linearGradient>
	<path id="XMLID_27_" fill="url(#XMLID_22_)" d="M115.2,285.3l50.8-13.7v-50.8c-5.2,1.3-13.7,3.3-25.4,5.9
		c-10.4,2.6-18.9,4.6-25.4,5.9v-87.9h54.7V97.8h-54.7v-84H66.4v84H5.9v46.9h60.5v99.6c-6.5,1.3-16.3,3.3-29.3,5.9
		c-16.9,3.9-29.3,7.2-37.1,9.8l3.9,56.6L66.4,299v105.5c1.3,14.3-6.5,20.8-23.4,19.5c-13,0-24.8,0-35.2,0
		c3.9,14.3,7.1,31.2,9.8,50.8c20.8,0,36.4-0.7,46.9-2c35.2-1.3,52.1-19.5,50.8-54.7V285.3z"/>
	<linearGradient id="XMLID_23_" gradientUnits="userSpaceOnUse" x1="739.5312" y1="1209.1953" x2="739.5312" y2="-226.8078">
		<stop  offset="0" style="stop-color:#84F44F"/>
		<stop  offset="1" style="stop-color:#D0F435"/>
	</linearGradient>
	<path id="XMLID_28_" fill="url(#XMLID_23_)" d="M775.3,190h187v-49h-204c4.5-44.5,5-88,5.5-127.5c8-1,12-4.5,12.5-9.5l-64-4
		c-0.5,44.5,0,93-4.5,141H516.3v49h184.5c-18.5,96-66.5,186-193.5,237.5c13,10.5,27.5,27.5,34.5,40.5c118.5-51,173-135,198.5-225.5
		c37,107.5,96.5,185,197,225.5c7.5-14,23-35,34.5-45.5C866.8,386,806.3,301,775.3,190z"/>
	<linearGradient id="XMLID_24_" gradientUnits="userSpaceOnUse" x1="305.6641" y1="1209.1953" x2="305.6641" y2="-226.8078">
		<stop  offset="0" style="stop-color:#84F44F"/>
		<stop  offset="1" style="stop-color:#D0F435"/>
	</linearGradient>
	<path id="XMLID_29_" fill="url(#XMLID_24_)" d="M380.9,80.3c-13-26-25.4-48.8-37.1-68.4L293,29.5c5.2,9.1,12.4,22.8,21.5,41
		c6.5,11.7,11,20.2,13.7,25.4H197.3v127c0,58.6-3.9,102.2-11.7,130.9c-7.8,31.2-24.1,61.9-48.8,91.8c3.9,2.6,11.7,8.5,23.4,17.6
		c10.4,9.1,17.6,15,21.5,17.6c27.3-37.8,45.6-73.5,54.7-107.4c9.1-33.8,13.7-82,13.7-144.5v-84h224.6V95.9H345.7L380.9,80.3z"/>
</g>
<g id="XMLID_15_">
</g>
<g id="XMLID_16_">
</g>
<g id="XMLID_17_">
</g>
<g id="XMLID_18_">
</g>
<g id="XMLID_19_">
</g>
<g id="XMLID_20_">
</g>
</svg>
